R Para Ciencia de Datos - 3 Visualización de datos
…
Además del Tidyverse, es necesario que cargues el paquete datos, ya que en él están contenidas las versiones en español de los datos que utilizaremos en este capítulo:

# install.packages("datos")
library(datos)

3.2 Primeros pasos

Usemos nuestro primer gráfico para responder una pregunta: ¿los automóviles con motores grandes consumen más combustible que los automóviles con motores pequeños? Probablemente ya tengas una respuesta, pero trata de responder de forma precisa. ¿Cómo es la relación entre el tamaño del motor y la eficiencia del combustible? ¿Es positiva? ¿Es negativa? ¿Es lineal o no lineal?

3.2.1 El data frame millas

Puedes poner a prueba tu respuesta empleando el data frame millas que se encuentra en el paquete datos (datos::millas). Un data frame es una colección rectangular de variables (columnas) y observaciones (filas). El data frame millas contiene observaciones para 38 modelos de automóviles recopiladas por la Agencia de Protección Ambiental de los EE. UU.

millas
#> # A tibble: 234 × 11
#>   fabricante modelo cilindrada  anio cilindros transmision traccion ciudad
#>   <chr>      <chr>       <dbl> <int>     <int> <chr>       <chr>     <int>
#> 1 audi       a4            1.8  1999         4 auto(l5)    d            18
#> 2 audi       a4            1.8  1999         4 manual(m5)  d            21
#> 3 audi       a4            2    2008         4 manual(m6)  d            20
#> 4 audi       a4            2    2008         4 auto(av)    d            21
#> 5 audi       a4            2.8  1999         6 auto(l5)    d            16
#> 6 audi       a4            2.8  1999         6 manual(m5)  d            18
#> # ℹ 228 more rows
#> # ℹ 3 more variables: autopista <int>, combustible <chr>, clase <chr>
…
