R Para Ciencia de Datos - 7 Análisis exploratorio de datos (EDA)
…
El tamaño de cada círculo en la gráfica muestra cuántas observaciones corresponden a cada combinación de valores. La covariación lucirá como una correlación fuerte entre valores específicos de x y y.

Otra estrategia es calcular el recuento con dplyr:

diamantes %>% 
  count(color, corte)

# A tibble: 35 × 3
   color corte         n
   <ord> <ord>     <int>
 1 D     Regular     163
 2 D     Bueno       662
 3 D     Muy bueno  1513
 4 D     Premium    1603
 5 D     Ideal      2834
 6 E     Regular     224
 7 E     Bueno       933
 8 E     Muy bueno  2400
 9 E     Premium    2337
10 E     Ideal      3903
# ℹ 25 more rows
…
