R Para Ciencia de Datos - 10 Tibbles
…
10.1 Introducción

A lo largo de este libro trabajaremos con “tibbles” (que se pronuncia /tibls/) en lugar de los tradicionales data.frame de R. Los tibbles son data frames, pero modifican algunas características antiguas para hacernos la vida más fácil. R es un lenguaje viejo y algunas cosas que eran útiles hace 10 o 20 años actualmente pueden resultar inconvenientes. Es difícil modificar R base sin romper código existente, así que la mayor parte de la innovación ocurre a través de paquetes. Aquí describiremos el paquete tibble, que provee una versión de data frame que facilita el trabajo con el tidyverse. La mayoría de las veces usaremos el término tibble y data frame de manera indistinta; cuando queramos referirnos de manera particular al data frame que viene incluido en R lo llamaremos data.frame.

Si luego de leer este capítulo te quedas con ganas de aprender más sobre tibbles, quizás disfrutes vignette("tibble").

10.1.1 Prerequisitos

En este capítulo exploraremos el paquete tibble, parte de los paquetes principales del tidyverse. Para ejemplificar utilizaremos datasets incluidos en el paquete datos.

10.2 Creando tibbles

La mayoría de las funciones que usarás en este libro producen tibbles, ya que son una de las características trasversales del tidyverse. La mayoría de los paquetes de R suelen usar data frames clásicos, así que algo que podrías querer hacer es convertir un data frame en un tibble. Esto lo puedes hacer con as_tibble():

# A tibble: 150 × 5
   Largo.Sepalo Ancho.Sepalo Largo.Petalo Ancho.Petalo Especie
          <dbl>        <dbl>        <dbl>        <dbl> <fct>  
 1          5.1          3.5          1.4          0.2 setosa 
 2          4.9          3            1.4          0.2 setosa 
 3          4.7          3.2          1.3          0.2 setosa 
 4          4.6          3.1          1.5          0.2 setosa 
 5          5            3.6          1.4          0.2 setosa 
 6          5.4          3.9          1.7          0.4 setosa 
 7          4.6          3.4          1.4          0.3 setosa 
 8          5            3.4          1.5          0.2 setosa 
 9          4.4          2.9          1.4          0.2 setosa 
10          4.9          3.1          1.5          0.1 setosa 
# ℹ 140 more rows
…
Usualmente agregamos un comentario para dejar en claro cuál es el encabezado (esta línea debe empezar con #).

10.3 Tibbles vs. data.frame

Existen dos diferencias principales entre el uso de un tibble y un data.frame clásico: la impresión en la consola y la selección de los subconjuntos.

10.3.1 Impresión en la consola

Los tibbles tienen un método de impresión en la consola refinado: solo muestran las primeras 10 filas y solo aquellas columnas que entran en el ancho de la pantalla. Esto simplifica y facilita trabajar con bases de datos grandes. Además del nombre, cada columna muestra su tipo. Esto último es una gran característica tomada de str().

# A tibble: 1,000 × 5
   a                   b              c      d e    
   <dttm>              <date>     <int>  <dbl> <chr>
 1 2023-06-06 20:28:41 2023-06-24     1 0.445  g    
 2 2023-06-06 13:30:23 2023-06-10     2 0.935  k    
 3 2023-06-07 09:37:39 2023-07-02     3 0.743  n    
 4 2023-06-07 01:12:15 2023-06-30     4 0.0185 y    
 5 2023-06-07 11:10:52 2023-06-24     5 0.534  s    
 6 2023-06-07 04:58:53 2023-06-11     6 0.310  l    
 7 2023-06-06 19:09:14 2023-06-09     7 0.411  l    
 8 2023-06-07 12:32:42 2023-07-02     8 0.383  z    
 9 2023-06-07 11:20:37 2023-06-23     9 0.871  l    
10 2023-06-06 21:57:19 2023-06-18    10 0.632  e    
# ℹ 990 more rows
…
