R Para Ciencia de Datos - 11 Importación de datos
…
Cada función parse_*() tiene su correspondiente función col_*(). Se utiliza parse_*() cuando los datos se encuentran en un vector de caracteres que ya está disponible en R; col_* para cuando quieres decirle a readr cómo cargar los datos.

Te recomendamos proporcionar la estructura para col_types a partir de la impresión en consola provista por readr. Esto asegura que tienes un script para importar datos consistente y reproducible. Si confías en las deducciones por defecto y tus datos cambian, readr continuará leyéndolos. Si quieres ser realmente estricto/a, emplea stop_for_problems() (detenerse en problemas): esto devolverá un mensaje de error y detendrá tu script si hay cualquier problema con la segmentación.

11.4.3 Otras estrategias

Existen algunas estrategias generales más para ayudarte a segmentar archivos:

En el ejemplo previo simplemente tuvimos mala suerta: si miramos solo una fila más que el número por defecto, podemos segmentar correctamente en un solo intento:

# A tibble: 2,000 × 2
       x y     
   <dbl> <date>
 1   404 NA    
 2  4172 NA    
 3  3004 NA    
 4   787 NA    
 5    37 NA    
 6  2332 NA    
 7  2489 NA    
 8  1449 NA    
 9  3665 NA    
10  3863 NA    
# ℹ 1,990 more rows
…
Si tienes problemas de segmentación importantes, a veces es más fácil leer un vector de caracteres de líneas con read_lines(), o incluso un vector de caracteres de largo 1 con read_file(). Luego puedes utilizar las habilidades sobre segmentación de cadenas de caracteres que aprenderás más adelante para segmentar formatos más exóticos.

11.5 Escribir a un archivo

readr también incluye dos funciones muy útiles para escribir datos de vuelta al disco: write_csv() y write_tsv(). Ambas funciones incrementan las posibilidades de que el archivo resultante sea leído correctamente al:

codificar siempre las cadenas de caracteres en UTF-8.

guardar fechas y fechas-horas en formato ISO8601, por lo que son fácilmente segmentadas en cualquier sitio.

Si quieres exportar un archivo csv a Excel, utiliza write_excel_csv() —esto escribe un caracter especial (una marca de orden de bytes) al comienzo del archivo que le dice a Excel que estás utilizando codificación UTF-8. Los argumentos más importantes son x (el data frame a guardar) y path (la ubicación donde lo guardarás). También puedes especificar cómo se escriben los valores ausentes con na y si quieres append (agregarlo) a un archivo existente.

Fíjate que la información sobre el tipo de datos se pierde cuando guardas en csv:

# A tibble: 2,000 × 2
   x     y    
   <chr> <chr>
 1 404   <NA> 
 2 4172  <NA> 
 3 3004  <NA> 
 4 787   <NA> 
 5 37    <NA> 
 6 2332  <NA> 
 7 2489  <NA> 
 8 1449  <NA> 
 9 3665  <NA> 
10 3863  <NA> 
# ℹ 1,990 more rows

# A tibble: 2,000 × 2
       x y     
   <dbl> <date>
 1   404 NA    
 2  4172 NA    
 3  3004 NA    
 4   787 NA    
 5    37 NA    
 6  2332 NA    
 7  2489 NA    
 8  1449 NA    
 9  3665 NA    
10  3863 NA    
# ℹ 1,990 more rows

Esto hace a los CSV poco confiables para almacenar en caché los resultados provisorios — necesitas recrear la especificación de las columnas cada vez que los cargas. Hay dos alternativas:

write_rds() and read_rds() son funciones “envoltorio” (wrappers) uniformes sobre las funciones base readRDS() y saveRDS(). Estas almacenan datos en un formato binario propio de R llamado RDS:

# A tibble: 2,000 × 2
   x     y    
   <chr> <chr>
 1 404   <NA> 
 2 4172  <NA> 
 3 3004  <NA> 
 4 787   <NA> 
 5 37    <NA> 
 6 2332  <NA> 
 7 2489  <NA> 
 8 1449  <NA> 
 9 3665  <NA> 
10 3863  <NA> 
# ℹ 1,990 more rows
…
