R Para Ciencia de Datos - 12 Datos ordenados
…
12.5.1 Ejercicios

Compara y contrasta el argumento fill que se usa en pivot_wider() con complete().

¿Qué hace el argumento de dirección en fill()?

12.6 Estudio de caso

Para finalizar el capítulo, combinemos todo lo que aprendiste para enfrentar un problema real de ordenamiento de datos. El dataset datos::oms contiene datos de tuberculosis (TB) detallados por año, país, edad, sexo y método de diagnóstico. Los datos provienen del Informe de Tuberculosis de la Organización Mundial de la Salud 2014, disponible en http://www.who.int/tb/country/data/download/en/.

Existe abundante información epidemiológica en este dataset, pero es complicado trabajar con estos datos tal como son entregados:

oms

# A tibble: 7,240 × 60
   pais      iso2  iso3   anio nuevos_fpp_h014 nuevos_fpp_h1524 nuevos_fpp_h2534
   <chr>     <chr> <chr> <dbl>           <dbl>            <dbl>            <dbl>
 1 Afganist… AF    AFG    1980              NA               NA               NA
 2 Afganist… AF    AFG    1981              NA               NA               NA
 3 Afganist… AF    AFG    1982              NA               NA               NA
 4 Afganist… AF    AFG    1983              NA               NA               NA
 5 Afganist… AF    AFG    1984              NA               NA               NA
 6 Afganist… AF    AFG    1985              NA               NA               NA
 7 Afganist… AF    AFG    1986              NA               NA               NA
 8 Afganist… AF    AFG    1987              NA               NA               NA
 9 Afganist… AF    AFG    1988              NA               NA               NA
10 Afganist… AF    AFG    1989              NA               NA               NA
# ℹ 7,230 more rows
# ℹ 53 more variables: nuevos_fpp_h3544 <dbl>, nuevos_fpp_h4554 <dbl>,
#   nuevos_fpp_h5564 <dbl>, nuevos_fpp_h65 <dbl>, nuevos_fpp_m014 <dbl>,
#   nuevos_fpp_m1524 <dbl>, nuevos_fpp_m2534 <dbl>, nuevos_fpp_m3544 <dbl>,
#   nuevos_fpp_m4554 <dbl>, nuevos_fpp_m5564 <dbl>, nuevos_fpp_m65 <dbl>,
#   nuevos_fpn_h014 <dbl>, nuevos_fpn_h1524 <dbl>, nuevos_fpn_h2534 <dbl>,
#   nuevos_fpn_h3544 <dbl>, nuevos_fpn_h4554 <dbl>, nuevos_fpn_h5564 <dbl>, …
…
Necesitamos agrupar todas las columnas desde nuevos_fpp_h014 hasta recaidas_m65. No sabemos aún qué representa esto, por lo que le daremos el nombre genérico de "clave". Sabemos que las celdas representan la cuenta de casos, por lo que usaremos la variable casos.

Existen múltiples valores faltantes en la representación actual, por lo que de momento usaremos na.rm para centrarnos en los valores que están presentes.

oms1 <- oms %>%
  pivot_longer(
    cols = nuevos_fpp_h014:nuevosrecaida_m65, 
    names_to = "clave", 
    values_to = "casos", 
    values_drop_na = TRUE
  )
oms1

# A tibble: 76,046 × 6
   pais       iso2  iso3   anio clave            casos
   <chr>      <chr> <chr> <dbl> <chr>            <dbl>
 1 Afganistán AF    AFG    1997 nuevos_fpp_h014      0
 2 Afganistán AF    AFG    1997 nuevos_fpp_h1524    10
 3 Afganistán AF    AFG    1997 nuevos_fpp_h2534     6
 4 Afganistán AF    AFG    1997 nuevos_fpp_h3544     3
 5 Afganistán AF    AFG    1997 nuevos_fpp_h4554     5
 6 Afganistán AF    AFG    1997 nuevos_fpp_h5564     2
 7 Afganistán AF    AFG    1997 nuevos_fpp_h65       0
 8 Afganistán AF    AFG    1997 nuevos_fpp_m014      5
 9 Afganistán AF    AFG    1997 nuevos_fpp_m1524    38
10 Afganistán AF    AFG    1997 nuevos_fpp_m2534    36
# ℹ 76,036 more rows

Podemos tener una noción de la estructura de los valores en la nueva columna clave si hacemos un conteo:

oms1 %>%
  count(clave)

# A tibble: 56 × 2
   clave               n
   <chr>           <int>
 1 nuevos_ep_h014   1038
 2 nuevos_ep_h1524  1026
 3 nuevos_ep_h2534  1020
 4 nuevos_ep_h3544  1024
 5 nuevos_ep_h4554  1020
 6 nuevos_ep_h5564  1015
 7 nuevos_ep_h65    1018
 8 nuevos_ep_m014   1032
 9 nuevos_ep_m1524  1021
10 nuevos_ep_m2534  1021
# ℹ 46 more rows
…
3544 = 35 – 44 años de edad

4554 = 45 – 54 años de edad

5564 = 55 – 64 años de edad

65 = 65 o más años de edad

Necesitamos hacer un pequeño cambio al formato de los nombres de las columnas: desafortunadamente lo nombres de las columnas son ligeramente inconsistentes debido a que en lugar de nuevos_recaida tenemos nuevosrecaida (es difícil darse cuenta de esto en esta parte, pero si no lo arreglas habrá errores en los pasos siguientes). Aprenderás sobre str_replace() en [cadenas de caracteres], pero la idea básica es bastante simple: reemplazar los caracteres “nuevosrecaida” por “nuevos_recaida”. Esto genera nombres de variables consistentes.

oms2 <- oms1 %>%
  mutate(clave = stringr::str_replace(clave, "nuevosrecaida", "nuevos_recaida"))
oms2

# A tibble: 76,046 × 6
   pais       iso2  iso3   anio clave            casos
   <chr>      <chr> <chr> <dbl> <chr>            <dbl>
 1 Afganistán AF    AFG    1997 nuevos_fpp_h014      0
 2 Afganistán AF    AFG    1997 nuevos_fpp_h1524    10
 3 Afganistán AF    AFG    1997 nuevos_fpp_h2534     6
 4 Afganistán AF    AFG    1997 nuevos_fpp_h3544     3
 5 Afganistán AF    AFG    1997 nuevos_fpp_h4554     5
 6 Afganistán AF    AFG    1997 nuevos_fpp_h5564     2
 7 Afganistán AF    AFG    1997 nuevos_fpp_h65       0
 8 Afganistán AF    AFG    1997 nuevos_fpp_m014      5
 9 Afganistán AF    AFG    1997 nuevos_fpp_m1524    38
10 Afganistán AF    AFG    1997 nuevos_fpp_m2534    36
# ℹ 76,036 more rows

Podemos separar los valores en cada código aplicando separate() dos veces. La primera aplicación dividirá los códigos en cada _.

oms3 <- oms2 %>%
  separate(clave, c("nuevos", "tipo", "sexo_edad"), sep = "_")
oms3

# A tibble: 76,046 × 8
   pais       iso2  iso3   anio nuevos tipo  sexo_edad casos
   <chr>      <chr> <chr> <dbl> <chr>  <chr> <chr>     <dbl>
 1 Afganistán AF    AFG    1997 nuevos fpp   h014          0
 2 Afganistán AF    AFG    1997 nuevos fpp   h1524        10
 3 Afganistán AF    AFG    1997 nuevos fpp   h2534         6
 4 Afganistán AF    AFG    1997 nuevos fpp   h3544         3
 5 Afganistán AF    AFG    1997 nuevos fpp   h4554         5
 6 Afganistán AF    AFG    1997 nuevos fpp   h5564         2
 7 Afganistán AF    AFG    1997 nuevos fpp   h65           0
 8 Afganistán AF    AFG    1997 nuevos fpp   m014          5
 9 Afganistán AF    AFG    1997 nuevos fpp   m1524        38
10 Afganistán AF    AFG    1997 nuevos fpp   m2534        36
# ℹ 76,036 more rows
…
# A tibble: 1 × 2
  nuevos     n
  <chr>  <int>
1 nuevos 76046

oms4 <- oms3 %>%
  select(-nuevos, -iso2, -iso3)

Luego separamos sexo_edad en sexo y edad dividiendo luego del primer carácter:

oms5 <- oms4 %>%
  separate(sexo_edad, c("sexo", "edad"), sep = 1)
oms5

# A tibble: 76,046 × 6
   pais        anio tipo  sexo  edad  casos
   <chr>      <dbl> <chr> <chr> <chr> <dbl>
 1 Afganistán  1997 fpp   h     014       0
 2 Afganistán  1997 fpp   h     1524     10
 3 Afganistán  1997 fpp   h     2534      6
 4 Afganistán  1997 fpp   h     3544      3
 5 Afganistán  1997 fpp   h     4554      5
 6 Afganistán  1997 fpp   h     5564      2
 7 Afganistán  1997 fpp   h     65        0
 8 Afganistán  1997 fpp   m     014       5
 9 Afganistán  1997 fpp   m     1524     38
10 Afganistán  1997 fpp   m     2534     36
# ℹ 76,036 more rows
…
