R Para Ciencia de Datos - 13 Datos relacionales
…
Una vez que identificas las claves primarias en tus tablas, es una buena práctica verificar que identifican de forma única cada observación. Una forma de hacerlo es usar count() con las claves primarias y buscar las entradas con n mayor a uno:

# A tibble: 0 × 2
# ℹ 2 variables: codigo_cola <chr>, n <int>

# A tibble: 3 × 6
   anio   mes   dia  hora origen     n
  <int> <int> <int> <int> <chr>  <int>
1  2013    11     3     1 EWR        2
2  2013    11     3     1 JFK        2
3  2013    11     3     1 LGA        2

A veces una tabla puede no tener una clave primaria explícita: cada fila es una observación, pero no existe una combinación de variables que la identifique de forma confiable. Por ejemplo, ¿cuál es la clave primaria en la tabla vuelos? Quizás pienses que podría ser la fecha más el vuelo o el código de cola, pero ninguna de esas variables es única:

# A tibble: 29,768 × 5
    anio   mes   dia vuelo     n
   <int> <int> <int> <int> <int>
 1  2013     1     1     1     2
 2  2013     1     1     3     2
 3  2013     1     1     4     2
 4  2013     1     1    11     3
 5  2013     1     1    15     2
 6  2013     1     1    21     2
 7  2013     1     1    27     4
 8  2013     1     1    31     2
 9  2013     1     1    32     2
10  2013     1     1    35     2
# ℹ 29,758 more rows

# A tibble: 64,928 × 5
    anio   mes   dia codigo_cola     n
   <int> <int> <int> <chr>       <int>
 1  2013     1     1 N0EGMQ          2
 2  2013     1     1 N11189          2
 3  2013     1     1 N11536          2
 4  2013     1     1 N11544          3
 5  2013     1     1 N11551          2
 6  2013     1     1 N12540          2
 7  2013     1     1 N12567          2
 8  2013     1     1 N13123          2
 9  2013     1     1 N13538          3
10  2013     1     1 N13566          3
# ℹ 64,918 more rows
…
datos::diamantes

(Puede que necesites leer un poco de documentación.)

Dibuja un diagrama que ilustre las conexiones entre las tablas bateadores, personas y salarios incluidas en el paquete datos. Dibuja otro diagrama que muestre la relación entre personas, dirigentes y premios_dirigentes.

¿Cómo caracterizarías las relación entre bateadores, lanzadores y jardineros?

13.4 Uniones de transformación

La primera herramienta que miraremos para combinar pares de variables es la unión de transformación (mutating join). Una unión de transformación te permite combinar variables a partir de dos tablas. Primero busca coincidencias de observaciones de acuerdo a sus claves y luego copia las variables de una tabla en la otra.

Tal como mutate(), las funciones de unión agregan variables hacia la derecha, por lo que si tienes muchas variables inicialmente, las nuevas variables no se imprimirán. Para estos ejemplos, crearemos un conjunto de datos más angosto para que sea más fácil ver qué es lo que está ocurriendo:

# A tibble: 336,776 × 8
    anio   mes   dia  hora origen destino codigo_cola aerolinea
   <int> <int> <int> <dbl> <chr>  <chr>   <chr>       <chr>    
 1  2013     1     1     5 EWR    IAH     N14228      UA       
 2  2013     1     1     5 LGA    IAH     N24211      UA       
 3  2013     1     1     5 JFK    MIA     N619AA      AA       
 4  2013     1     1     5 JFK    BQN     N804JB      B6       
 5  2013     1     1     6 LGA    ATL     N668DN      DL       
 6  2013     1     1     5 EWR    ORD     N39463      UA       
 7  2013     1     1     6 EWR    FLL     N516JB      B6       
 8  2013     1     1     6 LGA    IAD     N829AS      EV       
 9  2013     1     1     6 JFK    MCO     N593JB      B6       
10  2013     1     1     6 LGA    ORD     N3ALAA      AA       
# ℹ 336,766 more rows

(Recuerda que en RStudio puedes también usar View() para evitar este problema.)

Imagina que quieres incluir el nombre completo de la aerolínea en vuelos2. Puedes combinar los datos de aerolinas y vuelos2 con left_join() (union_izquierda):

# A tibble: 336,776 × 7
    anio   mes   dia  hora codigo_cola aerolinea nombre                  
   <int> <int> <int> <dbl> <chr>       <chr>     <chr>                   
 1  2013     1     1     5 N14228      UA        United Air Lines Inc.   
 2  2013     1     1     5 N24211      UA        United Air Lines Inc.   
 3  2013     1     1     5 N619AA      AA        American Airlines Inc.  
 4  2013     1     1     5 N804JB      B6        JetBlue Airways         
 5  2013     1     1     6 N668DN      DL        Delta Air Lines Inc.    
 6  2013     1     1     5 N39463      UA        United Air Lines Inc.   
 7  2013     1     1     6 N516JB      B6        JetBlue Airways         
 8  2013     1     1     6 N829AS      EV        ExpressJet Airlines Inc.
 9  2013     1     1     6 N593JB      B6        JetBlue Airways         
10  2013     1     1     6 N3ALAA      AA        American Airlines Inc.  
# ℹ 336,766 more rows

El resultado de unir aerolineas y vuelos2 es la inclusión de una variable adicional: nombre. Esta es la razón de que llamemos unión de transformación a este tipo de unión. En este caso, podrías obtener el mismo resultado usando mutate() junto a las operaciones de filtro de R base:

# A tibble: 336,776 × 7
    anio   mes   dia  hora codigo_cola aerolinea nombre                  
   <int> <int> <int> <dbl> <chr>       <chr>     <chr>                   
 1  2013     1     1     5 N14228      UA        United Air Lines Inc.   
 2  2013     1     1     5 N24211      UA        United Air Lines Inc.   
 3  2013     1     1     5 N619AA      AA        American Airlines Inc.  
 4  2013     1     1     5 N804JB      B6        JetBlue Airways         
 5  2013     1     1     6 N668DN      DL        Delta Air Lines Inc.    
 6  2013     1     1     5 N39463      UA        United Air Lines Inc.   
 7  2013     1     1     6 N516JB      B6        JetBlue Airways         
 8  2013     1     1     6 N829AS      EV        ExpressJet Airlines Inc.
 9  2013     1     1     6 N593JB      B6        JetBlue Airways         
10  2013     1     1     6 N3ALAA      AA        American Airlines Inc.  
# ℹ 336,766 more rows
…
Ahora quieres encontrar cada vuelo que fue a alguno de esos destinos. Puedes construir un filtro:

# A tibble: 141,145 × 19
    anio   mes   dia horario_salida salida_programada atraso_salida
   <int> <int> <int>          <int>             <int>         <dbl>
 1  2013     1     1            542               540             2
 2  2013     1     1            554               600            -6
 3  2013     1     1            554               558            -4
 4  2013     1     1            555               600            -5
 5  2013     1     1            557               600            -3
 6  2013     1     1            558               600            -2
 7  2013     1     1            558               600            -2
 8  2013     1     1            558               600            -2
 9  2013     1     1            559               559             0
10  2013     1     1            600               600             0
# ℹ 141,135 more rows
# ℹ 13 more variables: horario_llegada <int>, llegada_programada <int>,
#   atraso_llegada <dbl>, aerolinea <chr>, vuelo <int>, codigo_cola <chr>,
#   origen <chr>, destino <chr>, tiempo_vuelo <dbl>, distancia <dbl>,
#   hora <dbl>, minuto <dbl>, fecha_hora <dttm>

Pero es difícil extender este enfoque a varias variables. Por ejemplo, imagina que encontraste los diez días con los atrasos promedio más altos. ¿Cómo construirías un filtro que use anio, mes y dia para buscar coincidencias con vuelos?

Puedes, en cambio, usar semi_join(), que conecta dos tablas de manera similar a una unión de transformación, pero en lugar de agregar nuevas columnas, mantiene las filas en x que tienen coincidencias en y:

# A tibble: 141,145 × 19
    anio   mes   dia horario_salida salida_programada atraso_salida
   <int> <int> <int>          <int>             <int>         <dbl>
 1  2013     1     1            542               540             2
 2  2013     1     1            554               600            -6
 3  2013     1     1            554               558            -4
 4  2013     1     1            555               600            -5
 5  2013     1     1            557               600            -3
 6  2013     1     1            558               600            -2
 7  2013     1     1            558               600            -2
 8  2013     1     1            558               600            -2
 9  2013     1     1            559               559             0
10  2013     1     1            600               600             0
# ℹ 141,135 more rows
# ℹ 13 more variables: horario_llegada <int>, llegada_programada <int>,
#   atraso_llegada <dbl>, aerolinea <chr>, vuelo <int>, codigo_cola <chr>,
#   origen <chr>, destino <chr>, tiempo_vuelo <dbl>, distancia <dbl>,
#   hora <dbl>, minuto <dbl>, fecha_hora <dttm>
…
Las anti uniones son útiles para encontrar desajustes. Por ejemplo, al conectar aviones y vuelos, podría interesarte saber que existen muchos vuelos que no tienen coincidencias en aviones:

# A tibble: 722 × 2
   codigo_cola     n
   <chr>       <int>
 1 <NA>         2512
 2 N725MQ        575
 3 N722MQ        513
 4 N723MQ        507
 5 N713MQ        483
 6 N735MQ        396
 7 N0EGMQ        371
 8 N534MQ        364
 9 N542MQ        363
10 N531MQ        349
# ℹ 712 more rows
…
