R Para Ciencia de Datos - 16 Fechas y horas
…
ymd() y sus funciones amigas crean fechas (date). Para generar una fecha-hora, agrega un guión bajo y al menos un “h”, “m” y “s” al nombre de la función de segmentación:

[1] "2017-01-31 20:11:59 UTC"

[1] "2017-01-31 08:01:00 UTC"

También puedes forzar la creación de una fecha-hora desde una fecha, al proveer un huso horario:

[1] "2017-01-31 UTC"

16.2.2 Desde componentes individuales

En lugar de una cadena de caracteres simple, a veces tienes los componentes individuales de una fecha-hora repartidos en múltiples columnas. Esto es lo que tenemos en los datos de vuelos:

# A tibble: 336,776 × 5
    anio   mes   dia  hora minuto
   <int> <int> <int> <dbl>  <dbl>
 1  2013     1     1     5     15
 2  2013     1     1     5     29
 3  2013     1     1     5     40
 4  2013     1     1     5     45
 5  2013     1     1     6      0
 6  2013     1     1     5     58
 7  2013     1     1     6      0
 8  2013     1     1     6      0
 9  2013     1     1     6      0
10  2013     1     1     6      0
# ℹ 336,766 more rows

Para crear una fecha-hora desde este tipo de input, usa make_date() (crear fecha) para las fechas, o make_datetime() (crear fecha-hora) para las fechas-horas:

# A tibble: 336,776 × 6
    anio   mes   dia  hora minuto salida             
   <int> <int> <int> <dbl>  <dbl> <dttm>             
 1  2013     1     1     5     15 2013-01-01 05:15:00
 2  2013     1     1     5     29 2013-01-01 05:29:00
 3  2013     1     1     5     40 2013-01-01 05:40:00
 4  2013     1     1     5     45 2013-01-01 05:45:00
 5  2013     1     1     6      0 2013-01-01 06:00:00
 6  2013     1     1     5     58 2013-01-01 05:58:00
 7  2013     1     1     6      0 2013-01-01 06:00:00
 8  2013     1     1     6      0 2013-01-01 06:00:00
 9  2013     1     1     6      0 2013-01-01 06:00:00
10  2013     1     1     6      0 2013-01-01 06:00:00
# ℹ 336,766 more rows

Hagamos esto mismo para cada una de las cuatro columnas de tiempo en vuelos. Las horas están representadas en un formato ligeramente más extraño, así que usaremos el módulo aritmético para extraer los componentes de horas y minutos. Una vez que hayamos creado las variables fecha-hora, nos centraremos en las variables que usaremos por el resto del capítulo.

# A tibble: 328,063 × 9
   origen destino atraso_salida atraso_llegada horario_salida     
   <chr>  <chr>           <dbl>          <dbl> <dttm>             
 1 EWR    IAH                 2             11 2013-01-01 05:17:00
 2 LGA    IAH                 4             20 2013-01-01 05:33:00
 3 JFK    MIA                 2             33 2013-01-01 05:42:00
 4 JFK    BQN                -1            -18 2013-01-01 05:44:00
 5 LGA    ATL                -6            -25 2013-01-01 05:54:00
 6 EWR    ORD                -4             12 2013-01-01 05:54:00
 7 EWR    FLL                -5             19 2013-01-01 05:55:00
 8 LGA    IAD                -3            -14 2013-01-01 05:57:00
 9 JFK    MCO                -3             -8 2013-01-01 05:57:00
10 LGA    ORD                -2              8 2013-01-01 05:58:00
# ℹ 328,053 more rows
# ℹ 4 more variables: horario_llegada <dttm>, salida_programada <dttm>,
#   llegada_programada <dttm>, tiempo_vuelo <dbl>
…
[1] "50d 25H 2M 0S"

Y, por supuesto, puedes sumarlos a las fechas. Comparados con las duraciones, los períodos son más propensos a hacer lo que esperas que hagan:

[1] "2016-12-31 06:00:00 UTC"

[1] "2017-01-01"

[1] "2016-03-13 14:00:00 EDT"

[1] "2016-03-13 13:00:00 EDT"

Usemos los períodos para arreglar una rareza relacionada a nuestras fechas de vuelos. Algunos aviones parecen arribar a su destino antes de salir de la ciudad de Nueva York.

# A tibble: 10,633 × 9
   origen destino atraso_salida atraso_llegada horario_salida     
   <chr>  <chr>           <dbl>          <dbl> <dttm>             
 1 EWR    BQN                 9             -4 2013-01-01 19:29:00
 2 JFK    DFW                59             NA 2013-01-01 19:39:00
 3 EWR    TPA                -2              9 2013-01-01 20:58:00
 4 EWR    SJU                -6            -12 2013-01-01 21:02:00
 5 EWR    SFO                11            -14 2013-01-01 21:08:00
 6 LGA    FLL               -10             -2 2013-01-01 21:20:00
 7 EWR    MCO                41             43 2013-01-01 21:21:00
 8 JFK    LAX                -7            -24 2013-01-01 21:28:00
 9 EWR    FLL                49             28 2013-01-01 21:34:00
10 EWR    FLL                -9            -14 2013-01-01 21:36:00
# ℹ 10,623 more rows
# ℹ 4 more variables: horario_llegada <dttm>, salida_programada <dttm>,
#   llegada_programada <dttm>, tiempo_vuelo <dbl>
…
