R Para Ciencia de Datos - 23 Construcción de modelos
…
Este gráfico indica que hay algunos diamantes con residuos bastante grandes - recuerda que un residuo de 2 indica que el diamante es 4x el precio que esperábamos. A menudo es útil mirar los valores inusuales individualmente:

#> # A tibble: 16 × 11
#>   precio  pred quilate corte  color claridad profundidad tabla     x     y     z
#>    <int> <dbl>   <dbl> <ord>  <ord> <ord>          <dbl> <dbl> <dbl> <dbl> <dbl>
#> 1   1013   264    0.25 Regul… F     SI2             54.4    64  4.3   4.23  2.32
#> 2   1186   284    0.25 Premi… G     SI2             59      60  5.33  5.28  3.12
#> 3   1186   284    0.25 Premi… G     SI2             58.8    60  5.33  5.28  3.12
#> 4   1262  2644    1.03 Regul… E     I1              78.2    54  5.72  5.59  4.42
#> 5   1415   639    0.35 Regul… G     VS2             65.9    54  5.57  5.53  3.66
#> 6   1415   639    0.35 Regul… G     VS2             65.9    54  5.57  5.53  3.66
#> # ℹ 10 more rows
…
En el gráfico de log_quilates vs. log_precio, hay unas tiras verticales brillantes. ¿Qué representan?

Si log(precio) = a_0 + a_1 * log(quilates), ¿Qué dice eso acerca

la relación entre precio y quilates?

Extrae los diamantes que tienen residuos muy altos y muy bajos. ¿Hay algo inusual en estos diamantes? ¿Son particularmente malos o buenos?, o ¿Crees que estos son errores de precio?

¿El modelo final, mod_diamantes2, hace un buen trabajo al predecir el precios de los diamantes? ¿Confiarías en lo que te indique gastar si fueras a comprar un diamante?

23.3 ¿Qué afecta el número de vuelos diarios?

Trabajaremos a través de un proceso similar para un conjunto de datos que parece aún más simple a primera vista: el número de vuelos que salen de NYC por día. Este es un conjunto realmente pequeño de datos — solo 365 filas y 2 columnas — y no vamos a terminar con un modelo completamente realizado, pero como veras, los pasos en el camino nos ayudarán a entender mejor los datos. Comenzaremos contando el número de vuelos por día y visualizándolos con ggplot2.

#> # A tibble: 365 × 2
#>   fecha          n
#>   <date>     <int>
#> 1 2013-01-01   842
#> 2 2013-01-02   943
#> 3 2013-01-03   914
#> 4 2013-01-04   915
#> 5 2013-01-05   720
#> 6 2013-01-06   832
#> # ℹ 359 more rows
…
Nuestro modelo falla en predecir con precisión el número de vuelos los sábados: durante el verano hay más vuelos de los que esperamos, y durante el otoño hay menos. Veremos como podemos capturar mejor este patrón en la siguiente sección.

Hay algunos días con mucho menos vuelos que los esperados:

#> # A tibble: 11 × 4
#>   fecha          n dia_semana resid
#>   <date>     <int> <ord>      <dbl>
#> 1 2013-01-01   842 Tue        -109.
#> 2 2013-01-20   786 Sun        -105.
#> 3 2013-05-26   729 Sun        -162.
#> 4 2013-07-04   737 Thu        -229.
#> 5 2013-07-05   822 Fri        -145.
#> 6 2013-09-01   718 Sun        -173.
#> # ℹ 5 more rows
…
