R Para Ciencia de Datos - 24 Muchos modelos
…
En haciendo datos ordenados con broom aprenderás sobre el conjunto de herramientas completo provisto por broom (escoba, en inglés) y verás cómo puede ser aplicado a otros tipos de estructuras de datos.

Este capítulo es en cierta medida aspiracional: si este libro es tu primera introducción a R, este capítulo probablemente será un desafío. Requiere que tengas profundamente internalizadas ideas acerca de modelado, estructuras de datos e iteración. Así que no te preocupes si no lo entiendes — solo aparta este capítulo por un par de meses, y vuelve cuando quieras ejercitar tu cerebro.

24.1.1 Prerrequisitos

Trabajar con muchos modelos requiere muchos de los paquetes del tidyverse (para exploración de datos, manejo y programación) y modelr para facilitar el modelado.

24.2 gapminder

Como motivación para entender el poder de muchos modelos simples, vamos a mirar los datos de “gapminder”. Estos datos fueron popularizados por Hans Rosling, un doctor y estadístico sueco. Si nunca has escuchado de él, para de leer este capítulo ahora mismo y revisa algunos de sus videos! Es un fantástico presentador de datos e ilustra cómo puedes usar datos para presentar una historia convincente. Un buen lugar para empezar es este video corto filmado en conjunto con la BBC: https://www.youtube.com/watch?v=jbkSRLYSojo.

Los datos de gapminder resumen la progresión de países a través del tiempo, mirando estadísticos como esperanza de vida y PIB. Los datos son de fácil acceso en R gracias a Jenny Bryan, quien creó el paquete gapminder. Utilizaremos la versión en español contenida en el paquete datos, que incorpora este dataset en el objeto paises.

# A tibble: 1,704 × 6
   pais       continente  anio esperanza_de_vida poblacion pib_per_capita
   <fct>      <fct>      <int>             <dbl>     <int>          <dbl>
 1 Afganistán Asia        1952              28.8   8425333           779.
 2 Afganistán Asia        1957              30.3   9240934           821.
 3 Afganistán Asia        1962              32.0  10267083           853.
 4 Afganistán Asia        1967              34.0  11537966           836.
 5 Afganistán Asia        1972              36.1  13079460           740.
 6 Afganistán Asia        1977              38.4  14880372           786.
 7 Afganistán Asia        1982              39.9  12881816           978.
 8 Afganistán Asia        1987              40.8  13867957           852.
 9 Afganistán Asia        1992              41.7  16317921           649.
10 Afganistán Asia        1997              41.8  22227415           635.
# ℹ 1,694 more rows
…
¿Cómo podemos ajustar fácilmente ese modelo para cada país?

24.2.1 Datos anidados

Te puedes imaginar copiando y pegando ese código múltiples veces; sin embargo, ¡ya has aprendido una mejor forma! Extrae el código en común con una función y repítelo usando una función map del paquete purrr. Este problema se estructura un poco diferente respecto a lo que has visto antes. En lugar de repetir una acción por cada variable, bnhgqueremos repetirla para cada país, es decir, un subconjunto de filas. Para hacer esto, necesitamos una nueva estructura de datos: el data frame anidado (nested data frame). Para crear un data frame anidado empezamos con un data frame agrupado, y lo “anidamos”:

# A tibble: 142 × 3
# Groups:   pais, continente [142]
   pais       continente data             
   <fct>      <fct>      <list>           
 1 Afganistán Asia       <tibble [12 × 4]>
 2 Albania    Europa     <tibble [12 × 4]>
 3 Argelia    África     <tibble [12 × 4]>
 4 Angola     África     <tibble [12 × 4]>
 5 Argentina  Américas   <tibble [12 × 4]>
 6 Australia  Oceanía    <tibble [12 × 4]>
 7 Austria    Europa     <tibble [12 × 4]>
 8 Baréin     Asia       <tibble [12 × 4]>
 9 Bangladesh Asia       <tibble [12 × 4]>
10 Bélgica    Europa     <tibble [12 × 4]>
# ℹ 132 more rows
…
Nota la diferencia entre un data frame agrupado estándar y un data frame anidado: en un data frame agrupado cada fila es una observación; en un data frame anidado, cada fila es un grupo. Otra forma de pensar en un conjunto de datos anidado es que ahora tenemos una meta-observación: una fila que representa todo el transcurso de tiempo para un país, en lugar de solo un punto en el tiempo.

24.2.2 Columnas-lista

Ahora que tenemos nuestro data frame anidado, estamos en una buena posición para ajustar algunos modelos. Tenemos una función para ajustar modelos:

Y queremos aplicarlo a cada data frame. Los data frames están en una lista, así que podemos usar purrr::map() para aplicar modelo_pais a cada elemento:

Sin embargo, en lugar de dejar la lista de modelos como un objeto suelto, lo mejor sería almacenarlo como una columna en el data frame por_pais. Almacenar objetos relacionados en columnas es una parte clave del valor de los data frames, y por eso creemos que las columnas-lista son tan buena idea. En el transcurso de nuestro trabajo con estos países vamos a tener muchas listas en las que tenemos un elemento por país. ¿Por qué no almacenarlos todos juntos en un data frame?

En otras palabras, en lugar de crear un nuevo objeto en el entorno global, vamos a crear una nueva variable en el data frame por_pais. Ese es un trabajo para dplyr::mutate():

# A tibble: 142 × 4
# Groups:   pais, continente [142]
   pais       continente data              modelo
   <fct>      <fct>      <list>            <list>
 1 Afganistán Asia       <tibble [12 × 4]> <lm>  
 2 Albania    Europa     <tibble [12 × 4]> <lm>  
 3 Argelia    África     <tibble [12 × 4]> <lm>  
 4 Angola     África     <tibble [12 × 4]> <lm>  
 5 Argentina  Américas   <tibble [12 × 4]> <lm>  
 6 Australia  Oceanía    <tibble [12 × 4]> <lm>  
 7 Austria    Europa     <tibble [12 × 4]> <lm>  
 8 Baréin     Asia       <tibble [12 × 4]> <lm>  
 9 Bangladesh Asia       <tibble [12 × 4]> <lm>  
10 Bélgica    Europa     <tibble [12 × 4]> <lm>  
# ℹ 132 more rows

Esto tiene una gran ventaja: como todos los objetos relacionados están almacenados juntos, no necesitas manualmente mantenerlos sincronizados cuando filtras o reordenas. La semántica del data frame se ocupa de esto por ti:

# A tibble: 30 × 4
# Groups:   pais, continente [30]
   pais                 continente data              modelo
   <fct>                <fct>      <list>            <list>
 1 Albania              Europa     <tibble [12 × 4]> <lm>  
 2 Austria              Europa     <tibble [12 × 4]> <lm>  
 3 Bélgica              Europa     <tibble [12 × 4]> <lm>  
 4 Bosnia y Herzegovina Europa     <tibble [12 × 4]> <lm>  
 5 Bulgaria             Europa     <tibble [12 × 4]> <lm>  
 6 Croacia              Europa     <tibble [12 × 4]> <lm>  
 7 República Checa      Europa     <tibble [12 × 4]> <lm>  
 8 Dinamarca            Europa     <tibble [12 × 4]> <lm>  
 9 Finlandia            Europa     <tibble [12 × 4]> <lm>  
10 Francia              Europa     <tibble [12 × 4]> <lm>  
# ℹ 20 more rows

# A tibble: 142 × 4
# Groups:   pais, continente [142]
   pais                     continente data              modelo
   <fct>                    <fct>      <list>            <list>
 1 Argelia                  África     <tibble [12 × 4]> <lm>  
 2 Angola                   África     <tibble [12 × 4]> <lm>  
 3 Benin                    África     <tibble [12 × 4]> <lm>  
 4 Botswana                 África     <tibble [12 × 4]> <lm>  
 5 Burkina Faso             África     <tibble [12 × 4]> <lm>  
 6 Burundi                  África     <tibble [12 × 4]> <lm>  
 7 Camerún                  África     <tibble [12 × 4]> <lm>  
 8 República Centroafricana África     <tibble [12 × 4]> <lm>  
 9 Chad                     África     <tibble [12 × 4]> <lm>  
10 Comoras                  África     <tibble [12 × 4]> <lm>  
# ℹ 132 more rows

Si tu lista de data frames y lista de modelos fueran objetos separados, tendrías que acordarte de que cuando reordenas o seleccionas un subconjunto de un vector, necesitas reordenar o seleccionar el subconjunto de todos los demás para mantenerlos sincronizados. Si te olvidas, tu código va a seguir funcionando, ¡pero va a devolver la respuesta equivocada!

24.2.3 Desanidando

Previamente calculamos los residuos de un único modelo con un conjunto de datos también único. Ahora tenemos 142 data frames y 142 modelos. Para calcular los residuos, necesitamos llamar a la función add_residuals() (adicionar residuos, en inglés) con cada par modelo-datos:

# A tibble: 142 × 5
# Groups:   pais, continente [142]
   pais       continente data              modelo residuos         
   <fct>      <fct>      <list>            <list> <list>           
 1 Afganistán Asia       <tibble [12 × 4]> <lm>   <tibble [12 × 5]>
 2 Albania    Europa     <tibble [12 × 4]> <lm>   <tibble [12 × 5]>
 3 Argelia    África     <tibble [12 × 4]> <lm>   <tibble [12 × 5]>
 4 Angola     África     <tibble [12 × 4]> <lm>   <tibble [12 × 5]>
 5 Argentina  Américas   <tibble [12 × 4]> <lm>   <tibble [12 × 5]>
 6 Australia  Oceanía    <tibble [12 × 4]> <lm>   <tibble [12 × 5]>
 7 Austria    Europa     <tibble [12 × 4]> <lm>   <tibble [12 × 5]>
 8 Baréin     Asia       <tibble [12 × 4]> <lm>   <tibble [12 × 5]>
 9 Bangladesh Asia       <tibble [12 × 4]> <lm>   <tibble [12 × 5]>
10 Bélgica    Europa     <tibble [12 × 4]> <lm>   <tibble [12 × 5]>
# ℹ 132 more rows

¿Pero cómo puedes graficar una lista de data frames? En lugar de luchar para contestar esa pregunta, transformemos la lista de data frames de vuelta en un data frame regular. Previamente usamos nest() (anidar) para transformar un data frame regular en uno anidado; ahora desanidaremos con unnest():

# A tibble: 1,704 × 9
# Groups:   pais, continente [142]
   pais       continente data     modelo  anio esperanza_de_vida poblacion
   <fct>      <fct>      <list>   <list> <int>             <dbl>     <int>
 1 Afganistán Asia       <tibble> <lm>    1952              28.8   8425333
 2 Afganistán Asia       <tibble> <lm>    1957              30.3   9240934
 3 Afganistán Asia       <tibble> <lm>    1962              32.0  10267083
 4 Afganistán Asia       <tibble> <lm>    1967              34.0  11537966
 5 Afganistán Asia       <tibble> <lm>    1972              36.1  13079460
 6 Afganistán Asia       <tibble> <lm>    1977              38.4  14880372
 7 Afganistán Asia       <tibble> <lm>    1982              39.9  12881816
 8 Afganistán Asia       <tibble> <lm>    1987              40.8  13867957
 9 Afganistán Asia       <tibble> <lm>    1992              41.7  16317921
10 Afganistán Asia       <tibble> <lm>    1997              41.8  22227415
# ℹ 1,694 more rows
# ℹ 2 more variables: pib_per_capita <dbl>, resid <dbl>
…
Parece que hemos perdido algunos patrones suaves. También hay algo interesante pasando en África: vemos algunos residuos muy grandes, lo que sugiere que nuestro modelo no está ajustando muy bien. Exploraremos más eso en la próxima sección, atacando el problema desde un ángulo un poco diferente.

24.2.4 Calidad del modelo

En lugar de examinar los residuos del modelo, podríamos examinar algunas medidas generales de la calidad del modelo. Aprendiste cómo calcular algunas medidas específicas en el capítulo anterior. Aquí mostraremos un enfoque diferente usando el paquete broom. El paquete broom provee un conjunto de funciones generales para transformar modelos en datos ordenados. Aquí utilizaremos broom::glance() (vistazo, en inglés) para extraer algunas métricas de la calidad del modelo. Si lo aplicamos a un modelo, obtenemos un data frame con una única fila:

# A tibble: 1 × 12
  r.squared adj.r.squared sigma statistic      p.value    df logLik   AIC   BIC
      <dbl>         <dbl> <dbl>     <dbl>        <dbl> <dbl>  <dbl> <dbl> <dbl>
1     0.954         0.949 0.804      205. 0.0000000541     1  -13.3  32.6  34.1
# ℹ 3 more variables: deviance <dbl>, df.residual <int>, nobs <int>

Podemos usar mutate() y unnest() para crear un data frame con una fila por cada país:

# A tibble: 142 × 14
# Groups:   pais, continente [142]
   pais       continente r.squared adj.r.squared sigma statistic  p.value    df
   <fct>      <fct>          <dbl>         <dbl> <dbl>     <dbl>    <dbl> <dbl>
 1 Afganistán Asia           0.948         0.942 1.22      181.  9.84e- 8     1
 2 Albania    Europa         0.911         0.902 1.98      102.  1.46e- 6     1
 3 Argelia    África         0.985         0.984 1.32      662.  1.81e-10     1
 4 Angola     África         0.888         0.877 1.41       79.1 4.59e- 6     1
 5 Argentina  Américas       0.996         0.995 0.292    2246.  4.22e-13     1
 6 Australia  Oceanía        0.980         0.978 0.621     481.  8.67e-10     1
 7 Austria    Europa         0.992         0.991 0.407    1261.  7.44e-12     1
 8 Baréin     Asia           0.967         0.963 1.64      291.  1.02e- 8     1
 9 Bangladesh Asia           0.989         0.988 0.977     930.  3.37e-11     1
10 Bélgica    Europa         0.995         0.994 0.293    1822.  1.20e-12     1
# ℹ 132 more rows
# ℹ 6 more variables: logLik <dbl>, AIC <dbl>, BIC <dbl>, deviance <dbl>,
#   df.residual <int>, nobs <int>

(Presta atención a las variables que no se imprimieron: hay mucha información útil allí).

Con este data frame podemos empezar a buscar modelos que no se ajustan bien:

# A tibble: 142 × 14
# Groups:   pais, continente [142]
   pais  continente r.squared adj.r.squared sigma statistic p.value    df logLik
   <fct> <fct>          <dbl>         <dbl> <dbl>     <dbl>   <dbl> <dbl>  <dbl>
 1 Ruan… África        0.0172      -0.0811   6.56     0.175  0.685      1  -38.5
 2 Bots… África        0.0340      -0.0626   6.11     0.352  0.566      1  -37.7
 3 Zimb… África        0.0562      -0.0381   7.21     0.596  0.458      1  -39.6
 4 Zamb… África        0.0598      -0.0342   4.53     0.636  0.444      1  -34.1
 5 Swaz… África        0.0682      -0.0250   6.64     0.732  0.412      1  -38.7
 6 Leso… África        0.0849      -0.00666  5.93     0.927  0.358      1  -37.3
 7 Cost… África        0.283        0.212    3.93     3.95   0.0748     1  -32.3
 8 Sudá… África        0.312        0.244    4.74     4.54   0.0588     1  -34.6
 9 Ugan… África        0.342        0.276    3.19     5.20   0.0457     1  -29.8
10 Repú… África        0.348        0.283    2.43     5.34   0.0434     1  -26.6
# ℹ 132 more rows
# ℹ 5 more variables: AIC <dbl>, BIC <dbl>, deviance <dbl>, df.residual <int>,
#   nobs <int>
…
Con mutate() y funciones vectorizadas que retornan una lista.

Con summarise() y funciones de resumen que retornan múltiples resultados.

Alternativamente, podrías crearlas a partir de una lista nombrada, usando tibble::enframe().

Generalmente, cuando creas columnas-lista, debes asegurarte de que sean homogéneas: cada elemento debe contener el mismo tipo de cosa. No hay chequeos para asegurarte de que sea así, pero si usas purrr y recuerdas lo que aprendiste sobre funciones de tipo estable (type-stable functions), encontrarás que eso pasa naturalmente.

24.4.1 Con anidación

nest() crea un data frame anidado, que es un data frame con una columna-lista de data frames. En un data frame anidado cada fila es una meta-observación: las otras columnas son variables que definen la observación (como país y continente arriba), y la columna-lista de data frames tiene las observaciones individuales que construyen la meta-observación.

Hay dos formas de usar nest(). Hasta ahora has visto cómo usarlo con un data frame agrupado. Cuando se aplica a un data frame agrupado, nest() mantiene las columnas que agrupan tal cual, y envuelve todo lo demás en la columna-lista:

# A tibble: 142 × 3
# Groups:   pais, continente [142]
   pais       continente data             
   <fct>      <fct>      <list>           
 1 Afganistán Asia       <tibble [12 × 4]>
 2 Albania    Europa     <tibble [12 × 4]>
 3 Argelia    África     <tibble [12 × 4]>
 4 Angola     África     <tibble [12 × 4]>
 5 Argentina  Américas   <tibble [12 × 4]>
 6 Australia  Oceanía    <tibble [12 × 4]>
 7 Austria    Europa     <tibble [12 × 4]>
 8 Baréin     Asia       <tibble [12 × 4]>
 9 Bangladesh Asia       <tibble [12 × 4]>
10 Bélgica    Europa     <tibble [12 × 4]>
# ℹ 132 more rows

También lo puedes usar en un data frame no agrupado, especificando cuáles columnas quieres anidar:

# A tibble: 142 × 3
   pais       continente data             
   <fct>      <fct>      <list>           
 1 Afganistán Asia       <tibble [12 × 4]>
 2 Albania    Europa     <tibble [12 × 4]>
 3 Argelia    África     <tibble [12 × 4]>
 4 Angola     África     <tibble [12 × 4]>
 5 Argentina  Américas   <tibble [12 × 4]>
 6 Australia  Oceanía    <tibble [12 × 4]>
 7 Austria    Europa     <tibble [12 × 4]>
 8 Baréin     Asia       <tibble [12 × 4]>
 9 Bangladesh Asia       <tibble [12 × 4]>
10 Bélgica    Europa     <tibble [12 × 4]>
# ℹ 132 more rows
…
