15 Factores | R para Ciencia de Datos
…
Si alguna vez necesitas acceso directo al conjunto de niveles válidos, puedes hacerlo con levels() (niveles):

levels(f2)
#> [1] "Dic" "Abr" "Ene" "Mar"

15.3 Encuesta Social General

Por el resto del capítulo, nos vamos a concentrar en datos::encuesta. Esta es la versión traducida al español de un conjunto de datos de ejemplo de la General Social Survey, una encuesta realizada en Estados Unidos desde hace mucho tiempo, conducida por la organización de investigación independiente llamada NORC, en la Universidad de Chicago. La encuesta tiene miles de preguntas, así que en el conjunto de datos hemos seleccionado aquellas que ilustran algunos de los desafíos comunes que encontrarás al trabajar con factores.

encuesta
#> # A tibble: 21,483 × 9
#>    anio estado_civil   edad raza  ingreso partido religion denominacion horas_tv
#>   <int> <fct>         <int> <fct> <fct>   <fct>   <fct>    <fct>           <int>
#> 1  2000 Nunca se ha …    26 Blan… 8000 -… Ind, p… Protest… Bautistas d…       12
#> 2  2000 Divorciado       48 Blan… 8000 -… No fue… Protest… Bautista, n…       NA
#> 3  2000 Viudo            67 Blan… No apl… Indepe… Protest… No denomina…        2
#> 4  2000 Nunca se ha …    39 Blan… No apl… Ind, p… Cristia… No aplica           4
#> 5  2000 Divorciado       25 Blan… No apl… No fue… Ninguna  No aplica           1
#> 6  2000 Casado           25 Blan… 20000 … Fuerte… Protest… Bautistas d…       NA
#> # ℹ 21,477 more rows
…
15.4.1 Ejercicios

Hay algunos números sospechosamente grandes en horas_tv. ¿Es la media un buen resumen?

Identifica para cada factor en encuesta si el orden de los niveles es arbitrario o responde a algún principio.

¿Por qué mover “No aplica” al inicio de los niveles lo llevó al final del gráfico?

15.5 Modificar los niveles de los factores

Más poderoso que cambiar el orden de los niveles es cambiar sus valores. Esto te permite clarificar etiquetas para publicación y colapsar niveles para visualizaciones de alto nivel. La herramienta más general y más poderosa es fct_recode() (recodificar factores). Esta función te permite recodificar o cambiar el valor de cada nivel. Por ejemplo, toma la columna encuesta$partido:

encuesta %>% count(partido)
#> # A tibble: 10 × 2
#>   partido                        n
#>   <fct>                      <int>
#> 1 Sin respuesta                154
#> 2 No sabe                        1
#> 3 Otro partido                 393
#> 4 Fuertemente republicano     2314
#> 5 No fuertemente republicano  3032
#> 6 Ind, pro rep                1791
#> # ℹ 4 more rows

Los niveles son concisos e inconsistentes. Modifiquémoslos un poco para que sean más largos y para poder usar una construcción paralela.

encuesta %>%
  mutate(partido = fct_recode(partido,
    "Republicano duro" = "Fuertemente republicano",
    "Republicano moderado" = "No fuertemente republicano",
    "Independiente pro republicano" = "Ind, pro rep",
    "Independiente pro demócrata" = "Ind, pro dem",
    "Demócrata moderado" = "No fuertemente demócrata",
    "Demócrata duro" = "Fuertemente demócrata"
  )) %>%
  count(partido)
#> # A tibble: 10 × 2
#>   partido                           n
#>   <fct>                         <int>
#> 1 Sin respuesta                   154
#> 2 No sabe                           1
#> 3 Otro partido                    393
#> 4 Republicano duro               2314
#> 5 Republicano moderado           3032
#> 6 Independiente pro republicano  1791
#> # ℹ 4 more rows
…
encuesta %>%
  mutate(partido = fct_recode(partido,
    "Republicano duro" = "Fuertemente republicano",
    "Republicano moderado" = "No fuertemente republicano",
    "Independiente pro republicano" = "Ind, pro rep",
    "Independiente pro demócrata" = "Ind, pro dem",
    "Demócrata moderado" = "No fuertemente demócrata",
    "Demócrata duro" = "Fuertemente demócrata",
    "Otro" = "Sin respuesta",
    "Otro" = "No sabe",
    "Otro" = "Otro partido"
  )) %>%
  count(partido)
#> # A tibble: 8 × 2
#>   partido                           n
#>   <fct>                         <int>
#> 1 Otro                            548
#> 2 Republicano duro               2314
#> 3 Republicano moderado           3032
#> 4 Independiente pro republicano  1791
#> 5 Independiente                  4119
#> 6 Independiente pro demócrata    2499
#> # ℹ 2 more rows
…
