25 Muchos modelos | R para Ciencia de Datos
…
Trabajar con muchos modelos requiere muchos de los paquetes del tidyverse (para exploración de datos, manejo y programación) y modelr para facilitar el modelado.

library(modelr)
library(tidyverse)

25.2 gapminder

Como motivación para entender el poder de muchos modelos simples, vamos a mirar los datos de “gapminder”. Estos datos fueron popularizados por Hans Rosling, un doctor y estadístico sueco. Si nunca has escuchado de él, para de leer este capítulo ahora mismo y revisa algunos de sus videos! Es un fantástico presentador de datos e ilustra cómo puedes usar datos para presentar una historia convincente. Un buen lugar para empezar es este video corto filmado en conjunto con la BBC: https://www.youtube.com/watch?v=jbkSRLYSojo.

Los datos de gapminder resumen la progresión de países a través del tiempo, mirando estadísticos como esperanza de vida y PIB. Los datos son de fácil acceso en R gracias a Jenny Bryan, quien creó el paquete gapminder. Utilizaremos la versión en español contenida en el paquete datos, que incorpora este dataset en el objeto paises.

library(datos)
paises
#> # A tibble: 1,704 × 6
#>   pais       continente  anio esperanza_de_vida poblacion pib_per_capita
#>   <fct>      <fct>      <int>             <dbl>     <int>          <dbl>
#> 1 Afganistán Asia        1952              28.8   8425333           779.
#> 2 Afganistán Asia        1957              30.3   9240934           821.
#> 3 Afganistán Asia        1962              32.0  10267083           853.
#> 4 Afganistán Asia        1967              34.0  11537966           836.
#> 5 Afganistán Asia        1972              36.1  13079460           740.
#> 6 Afganistán Asia        1977              38.4  14880372           786.
#> # ℹ 1,698 more rows
…
¿Cómo podemos ajustar fácilmente ese modelo para cada país?

25.2.1 Datos anidados

Te puedes imaginar copiando y pegando ese código múltiples veces; sin embargo, ¡ya has aprendido una mejor forma! Extrae el código en común con una función y repítelo usando una función map del paquete purrr. Este problema se estructura un poco diferente respecto a lo que has visto antes. En lugar de repetir una acción por cada variable, bnhgqueremos repetirla para cada país, es decir, un subconjunto de filas. Para hacer esto, necesitamos una nueva estructura de datos: el data frame anidado (nested data frame). Para crear un data frame anidado empezamos con un data frame agrupado, y lo “anidamos”:

por_pais <- paises %>%
  group_by(pais, continente) %>%
  nest()

por_pais
#> # A tibble: 142 × 3
#> # Groups:   pais, continente [142]
#>   pais       continente data             
#>   <fct>      <fct>      <list>           
#> 1 Afganistán Asia       <tibble [12 × 4]>
#> 2 Albania    Europa     <tibble [12 × 4]>
#> 3 Argelia    África     <tibble [12 × 4]>
#> 4 Angola     África     <tibble [12 × 4]>
#> 5 Argentina  Américas   <tibble [12 × 4]>
#> 6 Australia  Oceanía    <tibble [12 × 4]>
#> # ℹ 136 more rows

(Estamos haciendo un poco de trampa agrupando por continente y pais al mismo tiempo. Dado el pais, continente es fijo, así que no agrega ningún grupo más, pero es una forma fácil de llevarnos una variable adicional para el camino.)

Esto crea un data frame que tiene una fila por grupo (por país), y una columna bastante inusual: data. data es una lista de data frames (o tibbles, para ser precisos). Esto parece una idea un poco loca: ¡tenemos un data frame con una columna que es una lista de otros data frames! Explicaré brevemente por qué pienso que es una buena idea.

La columna data es un poco difícil de examinar porque es una lista moderadamente complicada y todavía estamos trabajando para tener buenas herramientas para explorar estos objetos. Desafortunadamente, usar str() no es recomendable porque usualmente producirá un output (salida de código) muy extenso. Pero si extraes un solo elemento de la columna data verás que contiene todos los datos para ese país (en este caso, Afganistán).

por_pais$data[[1]]
#> # A tibble: 12 × 4
#>    anio esperanza_de_vida poblacion pib_per_capita
#>   <int>             <dbl>     <int>          <dbl>
#> 1  1952              28.8   8425333           779.
#> 2  1957              30.3   9240934           821.
#> 3  1962              32.0  10267083           853.
#> 4  1967              34.0  11537966           836.
#> 5  1972              36.1  13079460           740.
#> 6  1977              38.4  14880372           786.
#> # ℹ 6 more rows
…
Y queremos aplicarlo a cada data frame. Los data frames están en una lista, así que podemos usar purrr::map() para aplicar modelo_pais a cada elemento:

modelos <- map(por_pais$data, modelo_pais)

Sin embargo, en lugar de dejar la lista de modelos como un objeto suelto, lo mejor sería almacenarlo como una columna en el data frame por_pais. Almacenar objetos relacionados en columnas es una parte clave del valor de los data frames, y por eso creemos que las columnas-lista son tan buena idea. En el transcurso de nuestro trabajo con estos países vamos a tener muchas listas en las que tenemos un elemento por país. ¿Por qué no almacenarlos todos juntos en un data frame?

En otras palabras, en lugar de crear un nuevo objeto en el entorno global, vamos a crear una nueva variable en el data frame por_pais. Ese es un trabajo para dplyr::mutate():

por_pais <- por_pais %>%
  mutate(modelo = map(data, modelo_pais))
por_pais
#> # A tibble: 142 × 4
#> # Groups:   pais, continente [142]
#>   pais       continente data              modelo
#>   <fct>      <fct>      <list>            <list>
#> 1 Afganistán Asia       <tibble [12 × 4]> <lm>  
#> 2 Albania    Europa     <tibble [12 × 4]> <lm>  
#> 3 Argelia    África     <tibble [12 × 4]> <lm>  
#> 4 Angola     África     <tibble [12 × 4]> <lm>  
#> 5 Argentina  Américas   <tibble [12 × 4]> <lm>  
#> 6 Australia  Oceanía    <tibble [12 × 4]> <lm>  
#> # ℹ 136 more rows

Esto tiene una gran ventaja: como todos los objetos relacionados están almacenados juntos, no necesitas manualmente mantenerlos sincronizados cuando filtras o reordenas. La semántica del data frame se ocupa de esto por ti:

por_pais %>%
  filter(continente == "Europa")
#> # A tibble: 30 × 4
#> # Groups:   pais, continente [30]
#>   pais                 continente data              modelo
#>   <fct>                <fct>      <list>            <list>
#> 1 Albania              Europa     <tibble [12 × 4]> <lm>  
#> 2 Austria              Europa     <tibble [12 × 4]> <lm>  
#> 3 Bélgica              Europa     <tibble [12 × 4]> <lm>  
#> 4 Bosnia y Herzegovina Europa     <tibble [12 × 4]> <lm>  
#> 5 Bulgaria             Europa     <tibble [12 × 4]> <lm>  
#> 6 Croacia              Europa     <tibble [12 × 4]> <lm>  
#> # ℹ 24 more rows
por_pais %>%
  arrange(continente, pais)
#> # A tibble: 142 × 4
#> # Groups:   pais, continente [142]
#>   pais         continente data              modelo
#>   <fct>        <fct>      <list>            <list>
#> 1 Argelia      África     <tibble [12 × 4]> <lm>  
#> 2 Angola       África     <tibble [12 × 4]> <lm>  
#> 3 Benin        África     <tibble [12 × 4]> <lm>  
#> 4 Botswana     África     <tibble [12 × 4]> <lm>  
#> 5 Burkina Faso África     <tibble [12 × 4]> <lm>  
#> 6 Burundi      África     <tibble [12 × 4]> <lm>  
#> # ℹ 136 more rows

Si tu lista de data frames y lista de modelos fueran objetos separados, tendrías que acordarte de que cuando reordenas o seleccionas un subconjunto de un vector, necesitas reordenar o seleccionar el subconjunto de todos los demás para mantenerlos sincronizados. Si te olvidas, tu código va a seguir funcionando, ¡pero va a devolver la respuesta equivocada!

25.2.3 Desanidando

Previamente calculamos los residuos de un único modelo con un conjunto de datos también único. Ahora tenemos 142 data frames y 142 modelos. Para calcular los residuos, necesitamos llamar a la función add_residuals() (adicionar residuos, en inglés) con cada par modelo-datos:

por_pais <- por_pais %>%
  mutate(
    residuos = map2(data, modelo, add_residuals)
  )
por_pais
#> # A tibble: 142 × 5
#> # Groups:   pais, continente [142]
#>   pais       continente data              modelo residuos         
#>   <fct>      <fct>      <list>            <list> <list>           
#> 1 Afganistán Asia       <tibble [12 × 4]> <lm>   <tibble [12 × 5]>
#> 2 Albania    Europa     <tibble [12 × 4]> <lm>   <tibble [12 × 5]>
#> 3 Argelia    África     <tibble [12 × 4]> <lm>   <tibble [12 × 5]>
#> 4 Angola     África     <tibble [12 × 4]> <lm>   <tibble [12 × 5]>
#> 5 Argentina  Américas   <tibble [12 × 4]> <lm>   <tibble [12 × 5]>
#> 6 Australia  Oceanía    <tibble [12 × 4]> <lm>   <tibble [12 × 5]>
#> # ℹ 136 more rows

¿Pero cómo puedes graficar una lista de data frames? En lugar de luchar para contestar esa pregunta, transformemos la lista de data frames de vuelta en un data frame regular. Previamente usamos nest() (anidar) para transformar un data frame regular en uno anidado; ahora desanidaremos con unnest():

residuos <- unnest(por_pais, residuos)
residuos
#> # A tibble: 1,704 × 9
#> # Groups:   pais, continente [142]
#>   pais       continente data     modelo  anio esperanza_de_vida poblacion
#>   <fct>      <fct>      <list>   <list> <int>             <dbl>     <int>
#> 1 Afganistán Asia       <tibble> <lm>    1952              28.8   8425333
#> 2 Afganistán Asia       <tibble> <lm>    1957              30.3   9240934
#> 3 Afganistán Asia       <tibble> <lm>    1962              32.0  10267083
#> 4 Afganistán Asia       <tibble> <lm>    1967              34.0  11537966
#> 5 Afganistán Asia       <tibble> <lm>    1972              36.1  13079460
#> 6 Afganistán Asia       <tibble> <lm>    1977              38.4  14880372
#> # ℹ 1,698 more rows
#> # ℹ 2 more variables: pib_per_capita <dbl>, resid <dbl>
…
Podemos usar mutate() y unnest() para crear un data frame con una fila por cada país:

glance <- por_pais %>%
  mutate(glance = map(modelo, broom::glance)) %>%
  select(-data, -modelo, -residuos) %>% # remover las listas-columnas innecesarias
  unnest(glance)

glance
#> # A tibble: 142 × 14
#> # Groups:   pais, continente [142]
#>   pais  continente r.squared adj.r.squared sigma statistic  p.value    df logLik
#>   <fct> <fct>          <dbl>         <dbl> <dbl>     <dbl>    <dbl> <dbl>  <dbl>
#> 1 Afga… Asia           0.948         0.942 1.22      181.  9.84e- 8     1 -18.3 
#> 2 Alba… Europa         0.911         0.902 1.98      102.  1.46e- 6     1 -24.1 
#> 3 Arge… África         0.985         0.984 1.32      662.  1.81e-10     1 -19.3 
#> 4 Ango… África         0.888         0.877 1.41       79.1 4.59e- 6     1 -20.0 
#> 5 Arge… Américas       0.996         0.995 0.292    2246.  4.22e-13     1  -1.17
#> 6 Aust… Oceanía        0.980         0.978 0.621     481.  8.67e-10     1 -10.2 
#> # ℹ 136 more rows
#> # ℹ 5 more variables: AIC <dbl>, BIC <dbl>, deviance <dbl>, df.residual <int>,
#> #   nobs <int>

(Presta atención a las variables que no se imprimieron: hay mucha información útil allí).

Con este data frame podemos empezar a buscar modelos que no se ajustan bien:

glance %>%
  arrange(r.squared)
#> # A tibble: 142 × 14
#> # Groups:   pais, continente [142]
#>   pais   continente r.squared adj.r.squared sigma statistic p.value    df logLik
#>   <fct>  <fct>          <dbl>         <dbl> <dbl>     <dbl>   <dbl> <dbl>  <dbl>
#> 1 Ruanda África        0.0172      -0.0811   6.56     0.175   0.685     1  -38.5
#> 2 Botsw… África        0.0340      -0.0626   6.11     0.352   0.566     1  -37.7
#> 3 Zimba… África        0.0562      -0.0381   7.21     0.596   0.458     1  -39.6
#> 4 Zambia África        0.0598      -0.0342   4.53     0.636   0.444     1  -34.1
#> 5 Swazi… África        0.0682      -0.0250   6.64     0.732   0.412     1  -38.7
#> 6 Lesoto África        0.0849      -0.00666  5.93     0.927   0.358     1  -37.3
#> # ℹ 136 more rows
#> # ℹ 5 more variables: AIC <dbl>, BIC <dbl>, deviance <dbl>, df.residual <int>,
#> #   nobs <int>
…
Alternativamente, podrías crearlas a partir de una lista nombrada, usando tibble::enframe().

Generalmente, cuando creas columnas-lista, debes asegurarte de que sean homogéneas: cada elemento debe contener el mismo tipo de cosa. No hay chequeos para asegurarte de que sea así, pero si usas purrr y recuerdas lo que aprendiste sobre funciones de tipo estable (type-stable functions), encontrarás que eso pasa naturalmente.

25.4.1 Con anidación

nest() crea un data frame anidado, que es un data frame con una columna-lista de data frames. En un data frame anidado cada fila es una meta-observación: las otras columnas son variables que definen la observación (como país y continente arriba), y la columna-lista de data frames tiene las observaciones individuales que construyen la meta-observación.

Hay dos formas de usar nest(). Hasta ahora has visto cómo usarlo con un data frame agrupado. Cuando se aplica a un data frame agrupado, nest() mantiene las columnas que agrupan tal cual, y envuelve todo lo demás en la columna-lista:

paises %>%
  group_by(pais, continente) %>%
  nest()
#> # A tibble: 142 × 3
#> # Groups:   pais, continente [142]
#>   pais       continente data             
#>   <fct>      <fct>      <list>           
#> 1 Afganistán Asia       <tibble [12 × 4]>
#> 2 Albania    Europa     <tibble [12 × 4]>
#> 3 Argelia    África     <tibble [12 × 4]>
#> 4 Angola     África     <tibble [12 × 4]>
#> 5 Argentina  Américas   <tibble [12 × 4]>
#> 6 Australia  Oceanía    <tibble [12 × 4]>
#> # ℹ 136 more rows

También lo puedes usar en un data frame no agrupado, especificando cuáles columnas quieres anidar:

paises %>%
  nest(data = anio:pib_per_capita)
#> # A tibble: 142 × 3
#>   pais       continente data             
#>   <fct>      <fct>      <list>           
#> 1 Afganistán Asia       <tibble [12 × 4]>
#> 2 Albania    Europa     <tibble [12 × 4]>
#> 3 Argelia    África     <tibble [12 × 4]>
#> 4 Angola     África     <tibble [12 × 4]>
#> 5 Argentina  Américas   <tibble [12 × 4]>
#> 6 Australia  Oceanía    <tibble [12 × 4]>
#> # ℹ 136 more rows
…
df %>%
  mutate(x2 = stringr::str_split(x1, ","))
#> # A tibble: 2 × 2
#>   x1      x2       
#>   <chr>   <list>   
#> 1 a,b,c   <chr [3]>
#> 2 d,e,f,g <chr [4]>

unnest() sabe cómo manejar estas listas de vectores:

df %>%
  mutate(x2 = stringr::str_split(x1, ",")) %>%
  unnest(x2)
#> # A tibble: 7 × 2
#>   x1      x2   
#>   <chr>   <chr>
#> 1 a,b,c   a    
#> 2 a,b,c   b    
#> 3 a,b,c   c    
#> 4 d,e,f,g d    
#> 5 d,e,f,g e    
#> 6 d,e,f,g f    
#> # ℹ 1 more row
…
Una restricción de summarise() es que solo funciona con funciones de resumen que retornan un único valor. Eso significa que no puedes usarlo con funciones como quantile(), que retorna un vector de largo arbitrario:

mtautos %>%
  group_by(cilindros) %>%
  summarise(q = quantile(millas))
#> Warning: Returning more (or less) than 1 row per `summarise()` group was deprecated in
#> dplyr 1.1.0.
#> ℹ Please use `reframe()` instead.
#> ℹ When switching from `summarise()` to `reframe()`, remember that `reframe()`
#>   always returns an ungrouped data frame and adjust accordingly.
#> Call `lifecycle::last_lifecycle_warnings()` to see where this warning was
#> generated.
#> `summarise()` has grouped output by 'cilindros'. You can override using the
#> `.groups` argument.
#> # A tibble: 15 × 2
#> # Groups:   cilindros [3]
#>   cilindros     q
#>       <dbl> <dbl>
#> 1         4  21.4
#> 2         4  22.8
#> 3         4  26  
#> 4         4  30.4
#> 5         4  33.9
#> 6         6  17.8
#> # ℹ 9 more rows
…
Para producir resultados útiles con unnest, también necesitarás capturar las probabilidades:

probs <- c(0.01, 0.25, 0.5, 0.75, 0.99)
mtautos %>%
  group_by(cilindros) %>%
  summarise(p = list(probs), q = list(quantile(millas, probs))) %>%
  unnest(c(p, q))
#> # A tibble: 15 × 3
#>   cilindros     p     q
#>       <dbl> <dbl> <dbl>
#> 1         4  0.01  21.4
#> 2         4  0.25  22.8
#> 3         4  0.5   26  
#> 4         4  0.75  30.4
#> 5         4  0.99  33.8
#> 6         6  0.01  17.8
#> # ℹ 9 more rows
…
Lista todas las funciones en las que puedas pensar que tomen como input un vector atómico y
retornen una lista.

Piensa en funciones de resumen útiles que, como quantile(), retornen
múltiples valores.

¿Qué es lo que falta en el siguiente data frame? ¿Cómo quantile() retorna
eso que falta? ¿Por qué eso no es tan útil aquí?

mtautos %>%
  group_by(cilindros) %>%
  summarise(q = list(quantile(millas))) %>%
  unnest(q)
#> # A tibble: 15 × 2
#>   cilindros     q
#>       <dbl> <dbl>
#> 1         4  21.4
#> 2         4  22.8
#> 3         4  26  
#> 4         4  30.4
#> 5         4  33.9
#> 6         6  17.8
#> # ℹ 9 more rows
…
