R Para Ciencia de Datos - 5 Transformación de datos
…
En este capítulo nos enfocaremos en cómo usar el paquete dplyr, otro miembro central del tidyverse. Ilustraremos las ideas clave con el dataset vuelos que está contenido en el paquete datos. Utilizaremos ggplot2 como ayuda para comprender los datos.

# install.packages("datos")
library(datos)
library(tidyverse)

Toma nota acerca del mensaje de conflictos que se imprime cuando cargas el paquete tidyverse. Te indica que dplyr sobrescribe algunas funciones de R base. Si deseas usar la versión base de estas funciones después de cargar dplyr, necesitarás usar sus nombres completos: stats::filter() y stats::lag().

5.1.2 vuelos

Para explorar los verbos básicos de manipulación de datos de dplyr, usaremos vuelos. Este conjunto de datos contiene los 336, 776 vuelos que partieron de la ciudad de Nueva York durante el 2013. Los datos provienen del Departamento de Estadísticas de Transporte de los Estados Unidos y están documentados en ?vuelos.

vuelos

# A tibble: 336,776 × 19
    anio   mes   dia horario_salida salida_programada atraso_salida
   <int> <int> <int>          <int>             <int>         <dbl>
 1  2013     1     1            517               515             2
 2  2013     1     1            533               529             4
 3  2013     1     1            542               540             2
 4  2013     1     1            544               545            -1
 5  2013     1     1            554               600            -6
 6  2013     1     1            554               558            -4
 7  2013     1     1            555               600            -5
 8  2013     1     1            557               600            -3
 9  2013     1     1            557               600            -3
10  2013     1     1            558               600            -2
# ℹ 336,766 more rows
# ℹ 13 more variables: horario_llegada <int>, llegada_programada <int>,
#   atraso_llegada <dbl>, aerolinea <chr>, vuelo <int>, codigo_cola <chr>,
#   origen <chr>, destino <chr>, tiempo_vuelo <dbl>, distancia <dbl>,
#   hora <dbl>, minuto <dbl>, fecha_hora <dttm>
…
El primer argumento es un data frame.

Los argumentos posteriores describen qué hacer con el data frame usando los nombres de las variables (sin comillas).

El resultado es un nuevo data frame.

En conjunto, estas propiedades hacen que sea fácil encadenar varios pasos simples para lograr un resultado complejo. Sumerjámonos y veamos cómo funcionan estos verbos.

5.2 Filtrar filas con filter()

filter() te permite filtrar un subconjunto de observaciones según sus valores. El primer argumento es el nombre del data frame. El segundo y los siguientes argumentos son las expresiones que lo filtran. Por ejemplo, podemos seleccionar todos los vuelos del 1 de enero con:

filter(vuelos, mes == 1, dia == 1)

# A tibble: 842 × 19
    anio   mes   dia horario_salida salida_programada atraso_salida
   <int> <int> <int>          <int>             <int>         <dbl>
 1  2013     1     1            517               515             2
 2  2013     1     1            533               529             4
 3  2013     1     1            542               540             2
 4  2013     1     1            544               545            -1
 5  2013     1     1            554               600            -6
 6  2013     1     1            554               558            -4
 7  2013     1     1            555               600            -5
 8  2013     1     1            557               600            -3
 9  2013     1     1            557               600            -3
10  2013     1     1            558               600            -2
# ℹ 832 more rows
# ℹ 13 more variables: horario_llegada <int>, llegada_programada <int>,
#   atraso_llegada <dbl>, aerolinea <chr>, vuelo <int>, codigo_cola <chr>,
#   origen <chr>, destino <chr>, tiempo_vuelo <dbl>, distancia <dbl>,
#   hora <dbl>, minuto <dbl>, fecha_hora <dttm>

Cuando ejecutas esa línea de código, dplyr ejecuta la operación de filtrado y devuelve un nuevo data frame. Las funciones de dplyr nunca modifican su input, por lo que si deseas guardar el resultado, necesitarás usar el operador de asignación, <-:

ene1 <- filter(vuelos, mes == 1, dia == 1)

R imprime los resultados o los guarda en una variable. Si deseas hacer ambas cosas puedes escribir toda la línea entre paréntesis:

(dic25 <- filter(vuelos, mes == 12, dia == 25))

# A tibble: 719 × 19
    anio   mes   dia horario_salida salida_programada atraso_salida
   <int> <int> <int>          <int>             <int>         <dbl>
 1  2013    12    25            456               500            -4
 2  2013    12    25            524               515             9
 3  2013    12    25            542               540             2
 4  2013    12    25            546               550            -4
 5  2013    12    25            556               600            -4
 6  2013    12    25            557               600            -3
 7  2013    12    25            557               600            -3
 8  2013    12    25            559               600            -1
 9  2013    12    25            559               600            -1
10  2013    12    25            600               600             0
# ℹ 709 more rows
# ℹ 13 more variables: horario_llegada <int>, llegada_programada <int>,
#   atraso_llegada <dbl>, aerolinea <chr>, vuelo <int>, codigo_cola <chr>,
#   origen <chr>, destino <chr>, tiempo_vuelo <dbl>, distancia <dbl>,
#   hora <dbl>, minuto <dbl>, fecha_hora <dttm>
…
Partieron entre la medianoche y las 6 a.m. (incluyente)

Otra función de dplyr que es útil para usar filtros es between(). ¿Qué hace? ¿Puedes usarla para simplificar el código necesario para responder a los desafíos anteriores?

¿Cuántos vuelos tienen datos faltantes en horario_salida? ¿Qué otras variables tienen valores faltantes? ¿Qué representan estas filas?

¿Por qué NA ^ 0 no es faltante? ¿Por qué NA | TRUE no es faltante? ¿Por qué FALSE & NA no es faltante? ¿Puedes descubrir la regla general? (¡NA * 0 es un contraejemplo complicado!)

5.3 Reordenar las filas con arrange()

arrange() funciona de manera similar a filter() excepto que en lugar de seleccionar filas, cambia su orden. La función toma un data frame y un conjunto de nombres de columnas (o expresiones más complicadas) para ordenar según ellas. Si proporcionas más de un nombre de columna, cada columna adicional se utilizará para romper empates en los valores de las columnas anteriores:

arrange(vuelos, anio, mes, dia)

# A tibble: 336,776 × 19
    anio   mes   dia horario_salida salida_programada atraso_salida
   <int> <int> <int>          <int>             <int>         <dbl>
 1  2013     1     1            517               515             2
 2  2013     1     1            533               529             4
 3  2013     1     1            542               540             2
 4  2013     1     1            544               545            -1
 5  2013     1     1            554               600            -6
 6  2013     1     1            554               558            -4
 7  2013     1     1            555               600            -5
 8  2013     1     1            557               600            -3
 9  2013     1     1            557               600            -3
10  2013     1     1            558               600            -2
# ℹ 336,766 more rows
# ℹ 13 more variables: horario_llegada <int>, llegada_programada <int>,
#   atraso_llegada <dbl>, aerolinea <chr>, vuelo <int>, codigo_cola <chr>,
#   origen <chr>, destino <chr>, tiempo_vuelo <dbl>, distancia <dbl>,
#   hora <dbl>, minuto <dbl>, fecha_hora <dttm>

Usa desc() para reordenar por una columna en orden descendente:

arrange(vuelos, desc(atraso_salida))

# A tibble: 336,776 × 19
    anio   mes   dia horario_salida salida_programada atraso_salida
   <int> <int> <int>          <int>             <int>         <dbl>
 1  2013     1     9            641               900          1301
 2  2013     6    15           1432              1935          1137
 3  2013     1    10           1121              1635          1126
 4  2013     9    20           1139              1845          1014
 5  2013     7    22            845              1600          1005
 6  2013     4    10           1100              1900           960
 7  2013     3    17           2321               810           911
 8  2013     6    27            959              1900           899
 9  2013     7    22           2257               759           898
10  2013    12     5            756              1700           896
# ℹ 336,766 more rows
# ℹ 13 more variables: horario_llegada <int>, llegada_programada <int>,
#   atraso_llegada <dbl>, aerolinea <chr>, vuelo <int>, codigo_cola <chr>,
#   origen <chr>, destino <chr>, tiempo_vuelo <dbl>, distancia <dbl>,
#   hora <dbl>, minuto <dbl>, fecha_hora <dttm>
…
Ordena vuelos para encontrar los vuelos más rápidos (que viajaron a mayor velocidad).

¿Cuáles vuelos viajaron más lejos? ¿Cuál viajó más cerca?

5.4 Seleccionar columnas con select()

No es raro obtener conjuntos de datos con cientos o incluso miles de variables. En este caso, el primer desafío a menudo se reduce a las variables que realmente te interesan. select() te permite seleccionar rápidamente un subconjunto útil utilizando operaciones basadas en los nombres de las variables.

select() no es muy útil con los datos de los vuelos porque solo tenemos 19 variables, pero de todos modos se entiende la idea general:

# Seleccionar columnas por nombre
select(vuelos, anio, mes, dia)

# A tibble: 336,776 × 3
    anio   mes   dia
   <int> <int> <int>
 1  2013     1     1
 2  2013     1     1
 3  2013     1     1
 4  2013     1     1
 5  2013     1     1
 6  2013     1     1
 7  2013     1     1
 8  2013     1     1
 9  2013     1     1
10  2013     1     1
# ℹ 336,766 more rows

# Seleccionar todas las columnas entre anio y dia (incluyente)
select(vuelos, anio:dia)

# A tibble: 336,776 × 3
    anio   mes   dia
   <int> <int> <int>
 1  2013     1     1
 2  2013     1     1
 3  2013     1     1
 4  2013     1     1
 5  2013     1     1
 6  2013     1     1
 7  2013     1     1
 8  2013     1     1
 9  2013     1     1
10  2013     1     1
# ℹ 336,766 more rows

# Seleccionar todas las columnas excepto aquellas entre anio en dia (incluyente)
select(vuelos, -(anio:dia))

# A tibble: 336,776 × 16
   horario_salida salida_programada atraso_salida horario_llegada
            <int>             <int>         <dbl>           <int>
 1            517               515             2             830
 2            533               529             4             850
 3            542               540             2             923
 4            544               545            -1            1004
 5            554               600            -6             812
 6            554               558            -4             740
 7            555               600            -5             913
 8            557               600            -3             709
 9            557               600            -3             838
10            558               600            -2             753
# ℹ 336,766 more rows
# ℹ 12 more variables: llegada_programada <int>, atraso_llegada <dbl>,
#   aerolinea <chr>, vuelo <int>, codigo_cola <chr>, origen <chr>,
#   destino <chr>, tiempo_vuelo <dbl>, distancia <dbl>, hora <dbl>,
#   minuto <dbl>, fecha_hora <dttm>
…
ends_with("xyz"): coincide con los nombres que terminan con “xyz”.

contains("ijk"): coincide con los nombres que contienen “ijk”.

matches("(.)\\1"): selecciona variables que coinciden con una expresión regular. Esta en particular coincide con cualquier variable que contenga caracteres repetidos. Aprenderás más sobre expresiones regulares en [Cadenas de caracteres].

num_range("x", 1:3): coincide con x1,x2 y x3.

Consulta ?select para ver más detalles.

select() se puede usar para cambiar el nombre de las variables, pero rara vez es útil porque descarta todas las variables que no se mencionan explícitamente. En su lugar, utiliza rename(), que es una variante de select() que mantiene todas las variables que no se mencionan explícitamente:

rename(vuelos, cola_num = codigo_cola)

# A tibble: 336,776 × 19
    anio   mes   dia horario_salida salida_programada atraso_salida
   <int> <int> <int>          <int>             <int>         <dbl>
 1  2013     1     1            517               515             2
 2  2013     1     1            533               529             4
 3  2013     1     1            542               540             2
 4  2013     1     1            544               545            -1
 5  2013     1     1            554               600            -6
 6  2013     1     1            554               558            -4
 7  2013     1     1            555               600            -5
 8  2013     1     1            557               600            -3
 9  2013     1     1            557               600            -3
10  2013     1     1            558               600            -2
# ℹ 336,766 more rows
# ℹ 13 more variables: horario_llegada <int>, llegada_programada <int>,
#   atraso_llegada <dbl>, aerolinea <chr>, vuelo <int>, cola_num <chr>,
#   origen <chr>, destino <chr>, tiempo_vuelo <dbl>, distancia <dbl>,
#   hora <dbl>, minuto <dbl>, fecha_hora <dttm>

Otra opción es usar select() junto con el auxiliar everything() (todo, en inglés). Esto es útil si tienes un grupo de variables que te gustaría mover al comienzo del data frame.

select(vuelos, fecha_hora, tiempo_vuelo, everything())

# A tibble: 336,776 × 19
   fecha_hora          tiempo_vuelo  anio   mes   dia horario_salida
   <dttm>                     <dbl> <int> <int> <int>          <int>
 1 2013-01-01 05:00:00          227  2013     1     1            517
 2 2013-01-01 05:00:00          227  2013     1     1            533
 3 2013-01-01 05:00:00          160  2013     1     1            542
 4 2013-01-01 05:00:00          183  2013     1     1            544
 5 2013-01-01 06:00:00          116  2013     1     1            554
 6 2013-01-01 05:00:00          150  2013     1     1            554
 7 2013-01-01 06:00:00          158  2013     1     1            555
 8 2013-01-01 06:00:00           53  2013     1     1            557
 9 2013-01-01 06:00:00          140  2013     1     1            557
10 2013-01-01 06:00:00          138  2013     1     1            558
# ℹ 336,766 more rows
# ℹ 13 more variables: salida_programada <int>, atraso_salida <dbl>,
#   horario_llegada <int>, llegada_programada <int>, atraso_llegada <dbl>,
#   aerolinea <chr>, vuelo <int>, codigo_cola <chr>, origen <chr>,
#   destino <chr>, distancia <dbl>, hora <dbl>, minuto <dbl>
…
mutate() siempre agrega nuevas columnas al final de un conjunto de datos, así que comenzaremos creando un conjunto de datos más pequeño para que podamos ver las nuevas variables. Recuerda que cuando usas RStudio, la manera más fácil de ver todas las columnas es View().

vuelos_sml <- select(vuelos,
  anio:dia,
  starts_with("atraso"),
  distancia,
  tiempo_vuelo
)
mutate(vuelos_sml,
  ganancia = atraso_salida - atraso_llegada,
  velocidad = distancia / tiempo_vuelo * 60
)

# A tibble: 336,776 × 9
    anio   mes   dia atraso_salida atraso_llegada distancia tiempo_vuelo
   <int> <int> <int>         <dbl>          <dbl>     <dbl>        <dbl>
 1  2013     1     1             2             11      1400          227
 2  2013     1     1             4             20      1416          227
 3  2013     1     1             2             33      1089          160
 4  2013     1     1            -1            -18      1576          183
 5  2013     1     1            -6            -25       762          116
 6  2013     1     1            -4             12       719          150
 7  2013     1     1            -5             19      1065          158
 8  2013     1     1            -3            -14       229           53
 9  2013     1     1            -3             -8       944          140
10  2013     1     1            -2              8       733          138
# ℹ 336,766 more rows
# ℹ 2 more variables: ganancia <dbl>, velocidad <dbl>

Ten en cuenta que puedes hacer referencia a las columnas que acabas de crear:

mutate(vuelos_sml,
  ganancia = atraso_salida - atraso_llegada,
  horas = tiempo_vuelo / 60,
  ganacia_por_hora = ganancia / horas
)

# A tibble: 336,776 × 10
    anio   mes   dia atraso_salida atraso_llegada distancia tiempo_vuelo
   <int> <int> <int>         <dbl>          <dbl>     <dbl>        <dbl>
 1  2013     1     1             2             11      1400          227
 2  2013     1     1             4             20      1416          227
 3  2013     1     1             2             33      1089          160
 4  2013     1     1            -1            -18      1576          183
 5  2013     1     1            -6            -25       762          116
 6  2013     1     1            -4             12       719          150
 7  2013     1     1            -5             19      1065          158
 8  2013     1     1            -3            -14       229           53
 9  2013     1     1            -3             -8       944          140
10  2013     1     1            -2              8       733          138
# ℹ 336,766 more rows
# ℹ 3 more variables: ganancia <dbl>, horas <dbl>, ganacia_por_hora <dbl>

Si solo quieres conservar las nuevas variables, usa transmute():

transmute(vuelos,
  ganancia = atraso_salida - atraso_llegada,
  horas = tiempo_vuelo / 60,
  ganancia_por_hora = ganancia / horas
)

# A tibble: 336,776 × 3
   ganancia horas ganancia_por_hora
      <dbl> <dbl>             <dbl>
 1       -9 3.78              -2.38
 2      -16 3.78              -4.23
 3      -31 2.67             -11.6 
 4       17 3.05               5.57
 5       19 1.93               9.83
 6      -16 2.5               -6.4 
 7      -24 2.63              -9.11
 8       11 0.883             12.5 
 9        5 2.33               2.14
10      -10 2.3               -4.35
# ℹ 336,766 more rows
…
Hay muchas funciones para crear nuevas variables que puedes usar con mutate(). La propiedad clave es que la función debe ser vectorizada: debe tomar un vector de valores como input, y devolver un vector con el mismo número de valores como output. No hay forma de enumerar todas las posibles funciones que podrías usar, pero aquí hay una selección de funciones que frecuentemente son útiles:

Operadores aritméticos: +, -,*,/,^. Todos están vectorizados usando las llamadas “reglas de reciclaje”. Si un parámetro es más corto que el otro, se extenderá automáticamente para tener la misma longitud. Esto es muy útil cuando uno de los argumentos es un solo número: tiempo_vuelo / 60, horas * 60 + minuto, etc.

Los operadores aritméticos también son útiles junto con las funciones de agregar que aprenderás más adelante. Por ejemplo, x / sum(x) calcula la proporción de un total, y y - mean(y) calcula la diferencia de la media.

Aritmética modular: %/% (división entera) y %% (resto), donde x == y * (x %/% y) + (x %% y). La aritmética modular es una herramienta útil porque te permite dividir enteros en partes. Por ejemplo, en el conjunto de datos de vuelos, puedes calcular hora yminutos de horario_salida con:

transmute(vuelos,
  horario_salida,
  hora = horario_salida %/% 100,
  minuto = horario_salida %% 100
)

# A tibble: 336,776 × 3
   horario_salida  hora minuto
            <int> <dbl>  <dbl>
 1            517     5     17
 2            533     5     33
 3            542     5     42
 4            544     5     44
 5            554     5     54
 6            554     5     54
 7            555     5     55
 8            557     5     57
 9            557     5     57
10            558     5     58
# ℹ 336,766 more rows
…
