R Para Ciencia de Datos - 23 Modelos: conceptos básicos
…
[1] 2.665212

Ahora podemos usar purrr para calcular la distancia de todos los modelos definidos anteriormente. Necesitamos una función auxiliar debido a que nuestra función de distancia espera que el modelo sea un vector numérico de longitud 2.

sim1_dist <- function(a1, a2) {
  measure_distance(c(a1, a2), sim1)
}

modelos <- modelos %>%
  mutate(dist = purrr::map2_dbl(a1, a2, sim1_dist))
modelos

# A tibble: 250 × 3
      a1     a2  dist
   <dbl>  <dbl> <dbl>
 1 18.3   2.77  18.3 
 2 -1.78  1.49   9.50
 3  3.23  4.30  13.2 
 4 27.9   2.43  25.9 
 5  7.77  0.863  5.02
 6  3.45  2.24   2.21
 7 33.1  -0.357 17.2 
 8 -6.04  0.795 17.7 
 9 37.1   4.54  47.2 
10 35.8   3.36  38.9 
# ℹ 240 more rows
…
23.3.2 Residuos

La otra cara de las predicciones son los residuos. Las predicciones te informan de los patrones que el modelo captura y los residuos te dicen lo que el modelo ignora. Los residuos son las distancias entre lo observado y los valores predichos que calculamos anteriormente.

Agregamos los residuos a los datos con add_residuals(), que funciona de manera similar a add_predictions(). Nota, sin embargo, que usamos el data frame original y no no una grilla manufacturada. Esto es porque para calcular los residuos se necesitan los valores de “y”.

sim1 <- sim1 %>%
  add_residuals(sim1_mod)
sim1

# A tibble: 30 × 3
       x     y    resid
   <int> <dbl>    <dbl>
 1     1  4.20 -2.07   
 2     1  7.51  1.24   
 3     1  2.13 -4.15   
 4     2  8.99  0.665  
 5     2 10.2   1.92   
 6     2 11.3   2.97   
 7     3  7.36 -3.02   
 8     3 10.5   0.130  
 9     3 10.5   0.136  
10     4 12.4   0.00763
# ℹ 20 more rows
…
Para visualizar estos modelos necesitamos dos nuevos trucos:

Tenemos dos predictores, por lo que necesitamos pasar ambas variables a data_grid(). Esto encontrará todos los valores únicos de x1 y x2 y luego generará todas las combinaciones,

Para generar predicciones de ambos modelos simultáneamente, podemos usar gather_predictions() que incorpora cada predicción como una fila. El complemento de gather_predictions() es spread_predictions() que incluye cada predicción en una nueva columna.

Esto combinado nos da:

grid <- sim3 %>%
  data_grid(x1, x2) %>%
  gather_predictions(mod1, mod2)
grid

# A tibble: 80 × 4
   model    x1 x2     pred
   <chr> <int> <fct> <dbl>
 1 mod1      1 a      1.67
 2 mod1      1 b      4.56
 3 mod1      1 c      6.48
 4 mod1      1 d      4.03
 5 mod1      2 a      1.48
 6 mod1      2 b      4.37
 7 mod1      2 c      6.28
 8 mod1      2 d      3.84
 9 mod1      3 a      1.28
10 mod1      3 b      4.17
# ℹ 70 more rows
…
Demos un vistazo al modelo equivalente para dos variables continuas. Para comenzar, se procede de igual modo que el ejemplo anterior:

mod1 <- lm(y ~ x1 + x2, data = sim4)
mod2 <- lm(y ~ x1 * x2, data = sim4)

grid <- sim4 %>%
  data_grid(
    x1 = seq_range(x1, 5),
    x2 = seq_range(x2, 5)
  ) %>%
  gather_predictions(mod1, mod2)
grid

# A tibble: 50 × 4
   model    x1    x2   pred
   <chr> <dbl> <dbl>  <dbl>
 1 mod1   -1    -1    0.996
 2 mod1   -1    -0.5 -0.395
 3 mod1   -1     0   -1.79 
 4 mod1   -1     0.5 -3.18 
 5 mod1   -1     1   -4.57 
 6 mod1   -0.5  -1    1.91 
 7 mod1   -0.5  -0.5  0.516
 8 mod1   -0.5   0   -0.875
 9 mod1   -0.5   0.5 -2.27 
10 mod1   -0.5   1   -3.66 
# ℹ 40 more rows
…
